<?xml version="1.0" standalone="no"?>
<!DOCTYPE svg PUBLIC "-//W3C//DTD SVG 1.1//EN" "http://www.w3.org/Graphics/SVG/1.1/DTD/svg11.dtd">
<svg width="131mm" height="66mm" viewBox="-33 -33 131 66" xmlns="http://www.w3.org/2000/svg" version="1.1">
<title>OpenSCAD Model</title>
<path d="
M 28.0529,32.2955 L 29.5,31.6962 L 30.7426,30.7426 L 31.6962,29.5 L 32.2955,28.0529 L 32.5,26.5
 L 32.2955,24.9471 L 31.6962,23.5 L 31.0477,22.655 L 30.5112,21.8386 L 30.676,20.8497 L 31.0279,19.9698
 L 31.5559,19.2659 L 32.2598,18.7379 L 33.1396,18.386 L 34.1955,18.21 L 72.9015,18.21 L 73.5453,18.4767
 L 74.71,18.63 L 92.71,18.63 L 93.8747,18.4767 L 94.96,18.0271 L 95.892,17.312 L 96.6071,16.38
 L 97.0567,15.2947 L 97.21,14.13 L 97.0567,12.9653 L 96.6071,11.88 L 95.892,10.948 L 94.96,10.2329
 L 93.8747,9.78333 L 92.71,9.62999 L 79,9.62999 L 79,-9.62999 L 92.71,-9.62999 L 93.8747,-9.78333
 L 94.96,-10.2329 L 95.892,-10.948 L 96.6071,-11.88 L 97.0567,-12.9653 L 97.21,-14.13 L 97.0567,-15.2947
 L 96.6071,-16.38 L 95.892,-17.312 L 94.96,-18.0271 L 93.8747,-18.4767 L 92.71,-18.63 L 74.71,-18.63
 L 73.5453,-18.4767 L 72.9015,-18.21 L 34.1955,-18.21 L 33.1396,-18.386 L 32.2598,-18.7379 L 31.5559,-19.2659
 L 31.0279,-19.9698 L 30.676,-20.8497 L 30.5112,-21.8386 L 31.0477,-22.655 L 31.6962,-23.5 L 32.2955,-24.9471
 L 32.5,-26.5 L 32.2955,-28.0529 L 31.6962,-29.5 L 30.7426,-30.7426 L 29.5,-31.6962 L 28.0529,-32.2955
 L 26.5,-32.5 L 24.9471,-32.2955 L 23.5,-31.6962 L 22.2574,-30.7426 L 9.72472,-18.21 L -9.72472,-18.21
 L -22.2574,-30.7426 L -23.5,-31.6962 L -24.9471,-32.2955 L -26.5,-32.5 L -28.0529,-32.2955 L -29.5,-31.6962
 L -30.7426,-30.7426 L -31.6962,-29.5 L -32.2955,-28.0529 L -32.5,-26.5 L -32.2955,-24.9471 L -31.6962,-23.5
 L -31.0477,-22.655 L -30.5,-21.8216 L -30.5,21.8216 L -31.0477,22.655 L -31.6962,23.5 L -32.2955,24.9471
 L -32.5,26.5 L -32.2955,28.0529 L -31.6962,29.5 L -30.7426,30.7426 L -29.5,31.6962 L -28.0529,32.2955
 L -26.5,32.5 L -24.9471,32.2955 L -23.5,31.6962 L -22.2574,30.7426 L -9.72472,18.21 L 9.72472,18.21
 L 22.2574,30.7426 L 23.5,31.6962 L 24.9471,32.2955 L 26.5,32.5 z
M -24.9426,-22.8483 L -25.355,-23.0191 L -25.7092,-23.2908 L -25.9809,-23.645 L -26.1517,-24.0574 L -26.21,-24.5
 L -26.1517,-24.9426 L -25.9809,-25.355 L -25.7092,-25.7092 L -25.355,-25.9809 L -24.9426,-26.1517 L -24.5,-26.21
 L -24.0574,-26.1517 L -23.645,-25.9809 L -23.2908,-25.7092 L -23.0191,-25.355 L -22.8483,-24.9426 L -22.79,-24.5
 L -22.8483,-24.0574 L -23.0191,-23.645 L -23.2908,-23.2908 L -23.645,-23.0191 L -24.0574,-22.8483 L -24.5,-22.79
 z
M 24.0574,-22.8483 L 23.645,-23.0191 L 23.2908,-23.2908 L 23.0191,-23.645 L 22.8483,-24.0574 L 22.79,-24.5
 L 22.8483,-24.9426 L 23.0191,-25.355 L 23.2908,-25.7092 L 23.645,-25.9809 L 24.0574,-26.1517 L 24.5,-26.21
 L 24.9426,-26.1517 L 25.355,-25.9809 L 25.7092,-25.7092 L 25.9809,-25.355 L 26.1517,-24.9426 L 26.21,-24.5
 L 26.1517,-24.0574 L 25.9809,-23.645 L 25.7092,-23.2908 L 25.355,-23.0191 L 24.9426,-22.8483 L 24.5,-22.79
 z
M -15.6926,-13.5983 L -16.105,-13.7691 L -16.4592,-14.0408 L -16.7309,-14.395 L -16.9017,-14.8074 L -16.96,-15.25
 L -16.9017,-15.6926 L -16.7309,-16.105 L -16.4592,-16.4592 L -16.105,-16.7309 L -15.6926,-16.9017 L -15.25,-16.96
 L -14.8074,-16.9017 L -14.395,-16.7309 L -14.0408,-16.4592 L -13.7691,-16.105 L -13.5983,-15.6926 L -13.54,-15.25
 L -13.5983,-14.8074 L -13.7691,-14.395 L -14.0408,-14.0408 L -14.395,-13.7691 L -14.8074,-13.5983 L -15.25,-13.54
 z
M 14.8074,-13.5983 L 14.395,-13.7691 L 14.0408,-14.0408 L 13.7691,-14.395 L 13.5983,-14.8074 L 13.54,-15.25
 L 13.5983,-15.6926 L 13.7691,-16.105 L 14.0408,-16.4592 L 14.395,-16.7309 L 14.8074,-16.9017 L 15.25,-16.96
 L 15.6926,-16.9017 L 16.105,-16.7309 L 16.4592,-16.4592 L 16.7309,-16.105 L 16.9017,-15.6926 L 16.96,-15.25
 L 16.9017,-14.8074 L 16.7309,-14.395 L 16.4592,-14.0408 L 16.105,-13.7691 L 15.6926,-13.5983 L 15.25,-13.54
 z
M 90.5574,-11.8483 L 90.145,-12.0191 L 89.7908,-12.2908 L 89.5191,-12.645 L 89.3483,-13.0574 L 89.29,-13.5
 L 89.3483,-13.9426 L 89.5191,-14.355 L 89.7908,-14.7092 L 90.145,-14.9809 L 90.5574,-15.1517 L 91,-15.21
 L 91.4426,-15.1517 L 91.855,-14.9809 L 92.2092,-14.7092 L 92.4809,-14.355 L 92.6517,-13.9426 L 92.71,-13.5
 L 92.6517,-13.0574 L 92.4809,-12.645 L 92.2092,-12.2908 L 91.855,-12.0191 L 91.4426,-11.8483 L 91,-11.79
 z
M -10.4426,-8.34827 L -10.855,-8.51909 L -11.2092,-8.79083 L -11.4809,-9.14499 L -11.6517,-9.55742 L -11.71,-10
 L -11.6517,-10.4426 L -11.4809,-10.855 L -11.2092,-11.2092 L -10.855,-11.4809 L -10.4426,-11.6517 L -10,-11.71
 L -9.55742,-11.6517 L -9.14499,-11.4809 L -8.79083,-11.2092 L -8.51909,-10.855 L -8.34827,-10.4426 L -8.28999,-10
 L -8.34827,-9.55742 L -8.51909,-9.14499 L -8.79083,-8.79083 L -9.14499,-8.51909 L -9.55742,-8.34827 L -10,-8.28999
 z
M 9.55742,-8.34827 L 9.14499,-8.51909 L 8.79083,-8.79083 L 8.51909,-9.14499 L 8.34827,-9.55742 L 8.28999,-10
 L 8.34827,-10.4426 L 8.51909,-10.855 L 8.79083,-11.2092 L 9.14499,-11.4809 L 9.55742,-11.6517 L 10,-11.71
 L 10.4426,-11.6517 L 10.855,-11.4809 L 11.2092,-11.2092 L 11.4809,-10.855 L 11.6517,-10.4426 L 11.71,-10
 L 11.6517,-9.55742 L 11.4809,-9.14499 L 11.2092,-8.79083 L 10.855,-8.51909 L 10.4426,-8.34827 L 10,-8.28999
 z
M 43.1635,-8.74429 L 42.85,-8.87416 L 42.5807,-9.08075 L 42.3742,-9.34999 L 42.2443,-9.66353 L 42.2,-10
 L 42.2443,-10.3365 L 42.3742,-10.65 L 42.5807,-10.9192 L 42.85,-11.1258 L 43.1635,-11.2557 L 43.5,-11.3
 L 43.8365,-11.2557 L 44.15,-11.1258 L 44.4192,-10.9192 L 44.6258,-10.65 L 44.7557,-10.3365 L 44.8,-10
 L 44.7557,-9.66353 L 44.6258,-9.34999 L 44.4192,-9.08075 L 44.15,-8.87416 L 43.8365,-8.74429 L 43.5,-8.7
 z
M 63.1635,-8.74429 L 62.85,-8.87416 L 62.5807,-9.08075 L 62.3742,-9.34999 L 62.2443,-9.66353 L 62.2,-10
 L 62.2443,-10.3365 L 62.3742,-10.65 L 62.5807,-10.9192 L 62.85,-11.1258 L 63.1635,-11.2557 L 63.5,-11.3
 L 63.8365,-11.2557 L 64.15,-11.1258 L 64.4192,-10.9192 L 64.6258,-10.65 L 64.7557,-10.3365 L 64.8,-10
 L 64.7557,-9.66353 L 64.6258,-9.34999 L 64.4192,-9.08075 L 64.15,-8.87416 L 63.8365,-8.74429 L 63.5,-8.7
 z
M 31,8 L 31,-8 L 39,-8 L 39,8 z
M 45,-2 L 45,-8 L 62,-8 L 62,-2 z
M -8.5,-2 L -8.5,-8 L 8.5,-8 L 8.5,-2 z
M 24.0574,-3.34827 L 23.645,-3.51909 L 23.2908,-3.79083 L 23.0191,-4.14499 L 22.8483,-4.55742 L 22.79,-5
 L 22.8483,-5.44257 L 23.0191,-5.855 L 23.2908,-6.20915 L 23.645,-6.4809 L 24.0574,-6.65172 L 24.5,-6.70999
 L 24.9426,-6.65172 L 25.355,-6.4809 L 25.7092,-6.20915 L 25.9809,-5.855 L 26.1517,-5.44257 L 26.21,-5
 L 26.1517,-4.55742 L 25.9809,-4.14499 L 25.7092,-3.79083 L 25.355,-3.51909 L 24.9426,-3.34827 L 24.5,-3.28999
 z
M -24.9426,-3.34827 L -25.355,-3.51909 L -25.7092,-3.79083 L -25.9809,-4.14499 L -26.1517,-4.55742 L -26.21,-5
 L -26.1517,-5.44257 L -25.9809,-5.855 L -25.7092,-6.20915 L -25.355,-6.4809 L -24.9426,-6.65172 L -24.5,-6.70999
 L -24.0574,-6.65172 L -23.645,-6.4809 L -23.2908,-6.20915 L -23.0191,-5.855 L -22.8483,-5.44257 L -22.79,-5
 L -22.8483,-4.55742 L -23.0191,-4.14499 L -23.2908,-3.79083 L -23.645,-3.51909 L -24.0574,-3.34827 L -24.5,-3.28999
 z
M 65.5574,1.65173 L 65.145,1.4809 L 64.7908,1.20915 L 64.5191,0.854996 L 64.3483,0.442581 L 64.29,-0
 L 64.3483,-0.442566 L 64.5191,-0.854996 L 64.7908,-1.20915 L 65.145,-1.4809 L 65.5574,-1.65172 L 66,-1.70999
 L 66.4426,-1.65172 L 66.855,-1.4809 L 67.2092,-1.20915 L 67.4809,-0.854996 L 67.6517,-0.442566 L 67.71,-0
 L 67.6517,0.442581 L 67.4809,0.854996 L 67.2092,1.20915 L 66.855,1.4809 L 66.4426,1.65173 L 66,1.70999
 z
M -8.5,8 L -8.5,2 L 8.5,2 L 8.5,8 z
M 45,8 L 45,2 L 62,2 L 62,8 z
M -24.9426,6.65172 L -25.355,6.4809 L -25.7092,6.20915 L -25.9809,5.855 L -26.1517,5.44257 L -26.21,5
 L -26.1517,4.55742 L -25.9809,4.14499 L -25.7092,3.79083 L -25.355,3.51909 L -24.9426,3.34827 L -24.5,3.28999
 L -24.0574,3.34827 L -23.645,3.51909 L -23.2908,3.79083 L -23.0191,4.14499 L -22.8483,4.55742 L -22.79,5
 L -22.8483,5.44257 L -23.0191,5.855 L -23.2908,6.20915 L -23.645,6.4809 L -24.0574,6.65172 L -24.5,6.70999
 z
M 24.0574,6.65172 L 23.645,6.4809 L 23.2908,6.20915 L 23.0191,5.855 L 22.8483,5.44257 L 22.79,5
 L 22.8483,4.55742 L 23.0191,4.14499 L 23.2908,3.79083 L 23.645,3.51909 L 24.0574,3.34827 L 24.5,3.28999
 L 24.9426,3.34827 L 25.355,3.51909 L 25.7092,3.79083 L 25.9809,4.14499 L 26.1517,4.55742 L 26.21,5
 L 26.1517,5.44257 L 25.9809,5.855 L 25.7092,6.20915 L 25.355,6.4809 L 24.9426,6.65172 L 24.5,6.70999
 z
M -10.4426,11.6517 L -10.855,11.4809 L -11.2092,11.2092 L -11.4809,10.855 L -11.6517,10.4426 L -11.71,10
 L -11.6517,9.55742 L -11.4809,9.14499 L -11.2092,8.79083 L -10.855,8.51909 L -10.4426,8.34827 L -10,8.28999
 L -9.55742,8.34827 L -9.14499,8.51909 L -8.79083,8.79083 L -8.51909,9.14499 L -8.34827,9.55742 L -8.28999,10
 L -8.34827,10.4426 L -8.51909,10.855 L -8.79083,11.2092 L -9.14499,11.4809 L -9.55742,11.6517 L -10,11.71
 z
M 9.55742,11.6517 L 9.14499,11.4809 L 8.79083,11.2092 L 8.51909,10.855 L 8.34827,10.4426 L 8.28999,10
 L 8.34827,9.55742 L 8.51909,9.14499 L 8.79083,8.79083 L 9.14499,8.51909 L 9.55742,8.34827 L 10,8.28999
 L 10.4426,8.34827 L 10.855,8.51909 L 11.2092,8.79083 L 11.4809,9.14499 L 11.6517,9.55742 L 11.71,10
 L 11.6517,10.4426 L 11.4809,10.855 L 11.2092,11.2092 L 10.855,11.4809 L 10.4426,11.6517 L 10,11.71
 z
M 43.1635,11.2557 L 42.85,11.1258 L 42.5807,10.9192 L 42.3742,10.65 L 42.2443,10.3365 L 42.2,10
 L 42.2443,9.66353 L 42.3742,9.34999 L 42.5807,9.08075 L 42.85,8.87416 L 43.1635,8.74429 L 43.5,8.7
 L 43.8365,8.74429 L 44.15,8.87416 L 44.4192,9.08075 L 44.6258,9.34999 L 44.7557,9.66353 L 44.8,10
 L 44.7557,10.3365 L 44.6258,10.65 L 44.4192,10.9192 L 44.15,11.1258 L 43.8365,11.2557 L 43.5,11.3
 z
M 63.1635,11.2557 L 62.85,11.1258 L 62.5807,10.9192 L 62.3742,10.65 L 62.2443,10.3365 L 62.2,10
 L 62.2443,9.66353 L 62.3742,9.34999 L 62.5807,9.08075 L 62.85,8.87416 L 63.1635,8.74429 L 63.5,8.7
 L 63.8365,8.74429 L 64.15,8.87416 L 64.4192,9.08075 L 64.6258,9.34999 L 64.7557,9.66353 L 64.8,10
 L 64.7557,10.3365 L 64.6258,10.65 L 64.4192,10.9192 L 64.15,11.1258 L 63.8365,11.2557 L 63.5,11.3
 z
M 90.5574,15.1517 L 90.145,14.9809 L 89.7908,14.7092 L 89.5191,14.355 L 89.3483,13.9426 L 89.29,13.5
 L 89.3483,13.0574 L 89.5191,12.645 L 89.7908,12.2908 L 90.145,12.0191 L 90.5574,11.8483 L 91,11.79
 L 91.4426,11.8483 L 91.855,12.0191 L 92.2092,12.2908 L 92.4809,12.645 L 92.6517,13.0574 L 92.71,13.5
 L 92.6517,13.9426 L 92.4809,14.355 L 92.2092,14.7092 L 91.855,14.9809 L 91.4426,15.1517 L 91,15.21
 z
M 14.8074,16.9017 L 14.395,16.7309 L 14.0408,16.4592 L 13.7691,16.105 L 13.5983,15.6926 L 13.54,15.25
 L 13.5983,14.8074 L 13.7691,14.395 L 14.0408,14.0408 L 14.395,13.7691 L 14.8074,13.5983 L 15.25,13.54
 L 15.6926,13.5983 L 16.105,13.7691 L 16.4592,14.0408 L 16.7309,14.395 L 16.9017,14.8074 L 16.96,15.25
 L 16.9017,15.6926 L 16.7309,16.105 L 16.4592,16.4592 L 16.105,16.7309 L 15.6926,16.9017 L 15.25,16.96
 z
M -15.6926,16.9017 L -16.105,16.7309 L -16.4592,16.4592 L -16.7309,16.105 L -16.9017,15.6926 L -16.96,15.25
 L -16.9017,14.8074 L -16.7309,14.395 L -16.4592,14.0408 L -16.105,13.7691 L -15.6926,13.5983 L -15.25,13.54
 L -14.8074,13.5983 L -14.395,13.7691 L -14.0408,14.0408 L -13.7691,14.395 L -13.5983,14.8074 L -13.54,15.25
 L -13.5983,15.6926 L -13.7691,16.105 L -14.0408,16.4592 L -14.395,16.7309 L -14.8074,16.9017 L -15.25,16.96
 z
M -24.9426,26.1517 L -25.355,25.9809 L -25.7092,25.7092 L -25.9809,25.355 L -26.1517,24.9426 L -26.21,24.5
 L -26.1517,24.0574 L -25.9809,23.645 L -25.7092,23.2908 L -25.355,23.0191 L -24.9426,22.8483 L -24.5,22.79
 L -24.0574,22.8483 L -23.645,23.0191 L -23.2908,23.2908 L -23.0191,23.645 L -22.8483,24.0574 L -22.79,24.5
 L -22.8483,24.9426 L -23.0191,25.355 L -23.2908,25.7092 L -23.645,25.9809 L -24.0574,26.1517 L -24.5,26.21
 z
M 24.0574,26.1517 L 23.645,25.9809 L 23.2908,25.7092 L 23.0191,25.355 L 22.8483,24.9426 L 22.79,24.5
 L 22.8483,24.0574 L 23.0191,23.645 L 23.2908,23.2908 L 23.645,23.0191 L 24.0574,22.8483 L 24.5,22.79
 L 24.9426,22.8483 L 25.355,23.0191 L 25.7092,23.2908 L 25.9809,23.645 L 26.1517,24.0574 L 26.21,24.5
 L 26.1517,24.9426 L 25.9809,25.355 L 25.7092,25.7092 L 25.355,25.9809 L 24.9426,26.1517 L 24.5,26.21
 z
" stroke="black" fill="lightgray" stroke-width="0.5"/>
</svg>
