<?xml version="1.0" standalone="no"?>
<!DOCTYPE svg PUBLIC "-//W3C//DTD SVG 1.1//EN" "http://www.w3.org/Graphics/SVG/1.1/DTD/svg11.dtd">
<svg width="37mm" height="10mm" viewBox="-45 -127 37 10" xmlns="http://www.w3.org/2000/svg" version="1.1">
<title>OpenSCAD Model</title>
<path d="
M -9.61177,-117.551 L -9.25,-117.701 L -8.93933,-117.939 L -8.70096,-118.25 L -8.5511,-118.612 L -8.5,-119
 L -8.5,-125 L -8.5511,-125.388 L -8.70096,-125.75 L -8.93933,-126.061 L -9.25,-126.299 L -9.61177,-126.449
 L -10,-126.5 L -10.3882,-126.449 L -10.75,-126.299 L -11.0607,-126.061 L -11.299,-125.75 L -11.4489,-125.388
 L -11.5,-125 L -11.5,-123 L -42,-123 L -42,-125 L -42.0511,-125.388 L -42.201,-125.75
 L -42.4393,-126.061 L -42.75,-126.299 L -43.1118,-126.449 L -43.5,-126.5 L -43.8882,-126.449 L -44.25,-126.299
 L -44.5607,-126.061 L -44.799,-125.75 L -44.9489,-125.388 L -45,-125 L -45,-119 L -44.9489,-118.612
 L -44.799,-118.25 L -44.5607,-117.939 L -44.25,-117.701 L -43.8882,-117.551 L -43.5,-117.5 L -43.1118,-117.551
 L -42.75,-117.701 L -42.4393,-117.939 L -42.201,-118.25 L -42.0511,-118.612 L -42,-119 L -42,-121
 L -11.5,-121 L -11.5,-119 L -11.4489,-118.612 L -11.299,-118.25 L -11.0607,-117.939 L -10.75,-117.701
 L -10.3882,-117.551 L -10,-117.5 z
" stroke="black" fill="lightgray" stroke-width="0.5"/>
</svg>
